

--------------------------------------------------------------------------------


cd /Users/kharris/Documents/Code/candc-android
./gradlew app:dependencies

--------------------------------------------------------------------------------



Sample Push Headers


"android-content-title":"Message Received", "android-content-text":"Touch to view message.", "android-ticker-text":"ticker text"




--------------------------------------------------------------------------------

02-01 00:10:08.296 31209-31246/com.joinbesocial.candc W/OpenGLRenderer: Bitmap too large to be uploaded into a texture (5001x1293, max=4096x4096)

--------------------------------------------------------------------------------

http://www.digitaltrends.com/mobile/google-pixel-vs-pixel-xl/
http://iconhandbook.co.uk/reference/chart/android/


LDPI - 0.75x
MDPI - 1.0x (Original size)
HDPI - 1.5x
XHDPI - 2.0x
XXHDPI - 3x
XXXHDPI - 4.0x

LDPI: Portrait: 200 X 320px
MDPI: Portrait: 320 X 480px
HDPI: Portrait: 480 X 800px
XHDPI: Portrait: 720 X 1280px
XXHDPI: Portrait: 960 X 1600px 
XXXHDPI: Portrait: 2560 x 1440 


                            ldpi     mdpi    hdpi     xhdpi    xxhdpi     xxxhdpi

Launcher And Home           36*36    48*48   72*72    96*96    144*144    192*192
Action Bar And Tab          24*24    32*32   48*48    64*64    96*96      128*128
Notification                18*18    24*24   36*36    48*48    72*72      96*96
Background                  320*426  320*470 480*640  720*1280 1080*1920  1440*2560


Google Pixel:    1,080 x 1,920 pixels (441ppi) 
Google Pixel XL: 1,440 x 2,560 pixels (534ppi)

https://developer.android.com/about/dashboards/index.html

iOS Target:     iPhone 6 Plus    1242 × 2208 (i.e @3x)
Android Target: Google Pixel XL  1440 x 2560 (XXXHDPI)

--------------------------------------------------------------------------------


Button

        android:background="@drawable/btn_red"
        tools:ignore="MissingPrefix"
        fontPath="fonts/Montserrat-Bold.otf"
        android:textSize="17sp"
        android:textColor="@color/white"
        android:textAllCaps="false"

TextView

        tools:ignore="MissingPrefix"
        fontPath="fonts/OpenSans-Regular.ttf"
        android:textSize="17sp"
        android:textColor="@android:color/black"

        tools:ignore="MissingPrefix"
        fontPath="fonts/Montserrat-Bold.otf"
        android:textSize="17sp"

        tools:ignore="MissingPrefix"
        fontPath="fonts/PlayfairDisplay-Bold.otf"
        android:textSize="32sp"
        android:textColor="@android:color/black"


--------------------------------------------------------------------------------

<resources xmlns:tools="http://schemas.android.com/tools">

    <!--<style name="MyActionBarTabText" parent="@style/Widget.AppCompat.Light.ActionBar.TabText.Inverse">-->
        <!--<item name="fontPath">fonts/Montserrat-Bold.otf</item>-->
    <!--</style>-->

    <style name="MyActionBarTabText" parent="@style/Widget.AppCompat.Light.ActionBar.TabText">
        <!--<item name="fontPath">fonts/Montserrat-Bold.otf</item>-->

        <item name="android:textColor">@android:color/holo_blue_bright</item>
        <item name="android:textSize">14sp</item>
        <item name="android:textStyle">bold</item>
        <item name="android:fontFamily">sans-serif-light</item>

    </style>


    <style name="MyActionBar" parent="@style/Widget.AppCompat.Light.ActionBar.Solid.Inverse">

        <item name="android:actionBarTabTextStyle"   tools:ignore="NewApi">@style/MyActionBarTabText</item>
        <item name="actionBarTabTextStyle">@style/MyActionBarTabText</item>

        <item name="android:background"  tools:ignore="NewApi">@color/white</item>
        <item name="background">@color/white</item>
    </style>


    <!-- Base application theme. -->
    <style name="AppTheme" parent="Theme.AppCompat.Light">
        <!-- Customize your theme here. -->
        <item name="android:actionBarStyle"   tools:ignore="NewApi">@style/MyActionBar</item>
        <item name="actionBarStyle">@style/MyActionBar</item>

        <!--<item name="android:actionBarTabTextStyle">@style/Your.TabText.Style</item>-->
        <!--<item name="actionBarTabTextStyle">@style/Your.TabText.Style</item>-->
    </style>



    <!--<style name="Your.TabText.Style" parent="@style/Widget.AppCompat.Light.ActionBar.TabText">-->
        <!--<item name="textAllCaps">false</item>-->
    <!--</style>-->


    <!--<style name="AppTheme.Widget.TextView" parent="android:Widget.Holo.Light.TextView">-->
        <!--<item name="fontPath">fonts/Montserrat-Bold.otf</item>-->
        <!--<item name="android:textColor">@color/red</item>-->
    <!--</style>-->

    <!--<style name="MyActionBarTitleText" parent="@style/TextAppearance.AppCompat.Widget.ActionBar.Title">-->
        <!--<item name="android:textColor">@color/red</item>-->
    <!--</style>-->

    <style name="AppTheme.NoActionBar">
        <item name="windowActionBar">false</item>
        <item name="windowNoTitle">true</item>
    </style>

    <style name="AppTheme.AppBarOverlay" parent="ThemeOverlay.AppCompat.Dark.ActionBar"/>

    <style name="AppTheme.PopupOverlay" parent="ThemeOverlay.AppCompat.Light"/>

</resources>



    @Override
    public boolean onCreateOptionsMenu(Menu menu) {

        this.mMenu = menu;

        getSupportActionBar().setDisplayShowTitleEnabled(false);

//----------------------------------------
//        Toolbar toolbar = (Toolbar) findViewById(R.id.toolbar);
//        TextView toolbarTitle = (TextView) toolbar.findViewById(R.id.te);
//        Typeface myTypeface = Typeface.createFromAsset(getAssets(), "Montserrat-Bold.otf");
//        toolbarTitle.setTypeface(myTypeface);
//
//        getSupportActionBar().setDisplayShowTitleEnabled(true);
//        getSupportActionBar().setWindowTitle("App Name"); // Set title on the left
//
//        //getSupportActionBar().setElevation(20.0f); // Nothing.
//
//        getSupportActionBar().setDisplayShowCustomEnabled(true); // ?
//        getSupportActionBar().setSubtitle("This is a subtitle"); // Text under title on left
//
//        //getSupportActionBar().setTitle("YYYYYY"); // Same as setWindowTitle.   Why???
//
//        getSupportActionBar().setDisplayShowHomeEnabled(true);
//        getSupportActionBar().setDisplayUseLogoEnabled(true);
//        getSupportActionBar().setLogo(R.drawable.ic_person_black_48dp); // Sets a logo on the far left.
//
//
//        getSupportActionBar().setIcon(R.drawable.ic_person_add_black_48dp); // Does nothing!
//----------------------------------------

...

}




//    @Override
//    public void onRequestPermissionsResult(final int requestCode, @NonNull final String[] permissions, @NonNull final int[] grantResults) {
//
//        super.onRequestPermissionsResult(requestCode, permissions, grantResults);
//
//Log.e("GEO", "onRequestPermissionsResult");
//
//        if(requestCode == 123) {
//
//Log.e("GEO", "requestCode");
//
//            if(grantResults.length > 0 && grantResults[0] == PackageManager.PERMISSION_GRANTED) {
//
//                // Permission granted.
//                if(Utility.getInstance().getVenueCode() != null) {
//                    Cloud.getInstance().startGeofenceMonitoring(Utility.getInstance().getVenueCode());
//                }
//
//            } else {
//                // User refused to grant permission. You can add AlertDialog here
//                Toast.makeText(this, "You didn't give permission to access device location", Toast.LENGTH_LONG).show();
//                startInstalledAppDetailsActivity();
//            }
//        }
//    }

//    private void startInstalledAppDetailsActivity() {
//
//        Intent i = new Intent();
//        i.setAction(Settings.ACTION_APPLICATION_DETAILS_SETTINGS);
//        i.addCategory(Intent.CATEGORY_DEFAULT);
//        i.setData(Uri.parse("package:" + getPackageName()));
//        i.addFlags(Intent.FLAG_ACTIVITY_NEW_TASK);
//        startActivity(i);
//    }


//    @AskGranted(Manifest.permission.ACCESS_FINE_LOCATION)
//    public void fileAccessGranted() {
//
//        Log.i(TAG, "ACCESS_FINE_LOCATION GRANTED");
//
//        if(Utility.getInstance().getVenueCode() != null) {
//            Cloud.getInstance().startGeofenceMonitoring(Utility.getInstance().getVenueCode());
//        }
//    }
//
//    @AskDenied(Manifest.permission.ACCESS_FINE_LOCATION)
//    public void fileAccessDenied() {
//
//        Log.i(TAG, "ACCESS_FINE_LOCATION DENiED");
//    }



//        if(ContextCompat.checkSelfPermission(this, Manifest.permission.ACCESS_FINE_LOCATION) != PackageManager.PERMISSION_GRANTED) {
//
//Log.e("GEO", "checkSelfPermission false");
//
//            ActivityCompat.requestPermissions(this, new String[] {Manifest.permission.ACCESS_FINE_LOCATION}, 123);
//
//        } else {
//
//Log.e("GEO", "checkSelfPermission true");
//
//            if(Utility.getInstance().getVenueCode() != null) {
//                Cloud.getInstance().startGeofenceMonitoring(Utility.getInstance().getVenueCode());
//            }
//
//        }


//        handler = new Handler( new Handler.Callback() {
//            @Override
//            public boolean handleMessage(Message message) {
//
//                Log.d(TAG, "handleMessage passed: " + message.obj);
//
////                // Set active tab to Messages.
////                selectTabAtPosition(1);
////
////                Cloud.getInstance().loadChatSession(message.obj.toString(), new Cloud.ChatSessionResponseCallback() {
////                    @Override
////                    public void onData(ChatSession chatSession) {
////
////                        // Dismiss any load spinners that may have fired during the switch.
////                        Utility.getInstance().hideLoadSpinner();
////
////                        ChatFragment fragment = new ChatFragment();
////                        fragment.mChatSession = chatSession;
////                        pushFragment(fragment);
////
////                    }
////                }, new Cloud.FaultCallback() {
////                    @Override
////                    public void onFault(String code, String message) {
////
////                    }
////                });
//
//                return true;
//            }
//        } );




                        Utility.getInstance().showOkCancelDialog(getContext(), "Disable Location",
                                "Android requires that Location be disabled manually from the App's info panel.", new Utility.OkCallback() {
                                    @Override
                                    public void onOk() {
                                        startInstalledAppDetailsActivity();
                                    }
                                });

